{
    "took" : 266,
    "timed_out" : false,
    "_shards" : {
      "total" : 1,
      "successful" : 1,
      "skipped" : 0,
      "failed" : 0
    },
    "hits" : {
      "total" : {
        "value" : 1,
        "relation" : "eq"
      },
      "max_score" : 0.47000363,
      "hits" : [
        {
          "_index" : "books",
          "_type" : "_doc",
          "_id" : "1",
          "_score" : 0.47000363,
          "_source" : {
            "title" : "Lean Enterprise: How High Performance Organizations Innovate at Scale",
            "description" : "How well does your organization respond to changing market conditions, customer needs, and emerging technologies when building software-based products? This practical guide presents Lean and Agile principles and patterns to help you move fast at scale—and demonstrates why and how to apply these methodologies throughout your organization, rather than with just one department or team.\n\nThrough case studies, you'll learn how successful enterprises have rethought everything from governance and financial management to systems architecture and organizational culture in the pursuit of radically improved performance. Adopting Lean will take time and commitment, but it's vital for harnessing the cultural and technical forces that are accelerating the rate of innovation.\n\nDiscover how Lean focuses on people and teamwork at every level, in contrast to traditional management practices.\nApproach problem-solving experimentally, by exploring solutions, testing assumptions, and getting feedback from real users.\nLead and manage large-scale programs in a way that empowers employees, increases the speed and quality of delivery, and lowers costs.\nLearn how to implement ideas from the DevOps and Lean Startup movements even in complex, regulated environments.",
            "pages" : 352,
            "authors" : [
              "Jez Humble",
              "Joanne Molesky",
              "Barry O'Reilly"
            ],
            "publishYear" : 2014,
            "tags" : [
              "Lean",
              "Devops",
              "Development Methodologies",
              "Business"
            ],
            "formats" : [
              {
                "format" : "Hardcover",
                "link" : "https://www.amazon.com/Lean-Enterprise-Performance-Organizations-Innovate/dp/1449368425"
              },
              {
                "format" : "Softcover",
                "link" : "https://www.amazon.com/Lean-Enterprise-Performance-Organizations-2014-07-01/dp/B01K927WHC"
              },
              {
                "format" : "Kindle",
                "link" : "https://www.amazon.com/Lean-Enterprise-Performance-Organizations-Innovate-ebook/dp/B00QL5MSF8"
              }
            ],
            "users" : [
              {
                "username" : "pajones",
                "name" : "Paul Jones",
                "quarter" : "1Q2020",
                "priority" : 1,
                "will_lead" : true,
                "location" : "Lehi",
                "format" : "Hardcover"
              },
              {
                "username" : "reznik",
                "name" : "Ilya Reznik",
                "quarter" : "1Q2020",
                "priority" : 1,
                "will_lead" : false,
                "location" : "San Francisco",
                "format" : "Kindle"
              },
              {
                "username" : "reznik",
                "name" : "Ilya Reznik",
                "quarter" : "4Q2019",
                "priority" : 2,
                "will_lead" : false,
                "location" : "San Francisco",
                "format" : "Softcover"
              }
            ]
          }
        }
      ]
    }
  }